{
    "pem_path": "../shared/config/Testnet5.pem",
    "network_hosts": [
        {
            "name": "Testnet5-host0",
            "ipv4_dns": "ec2-15-237-124-1.eu-west-3.compute.amazonaws.com"
        },
        {
            "name": "Testnet5-host1",
            "ipv4_dns": "ec2-35-180-67-182.eu-west-3.compute.amazonaws.com"
        },
        {
            "name": "Testnet5-host2",
            "ipv4_dns": "ec2-13-37-229-27.eu-west-3.compute.amazonaws.com"
        },
        {
            "name": "Testnet5-host3",
            "ipv4_dns": "ec2-13-37-230-242.eu-west-3.compute.amazonaws.com"
        },
        {
            "name": "Testnet5-host4",
            "ipv4_dns": "ec2-35-180-125-221.eu-west-3.compute.amazonaws.com"
        },
        {
            "name": "Testnet5-host5",
            "ipv4_dns": "ec2-35-181-125-1.eu-west-3.compute.amazonaws.com"
        }
    ]
}